<?xml version="1.0" encoding="UTF-8"?>
<svg width="1257px" height="76px" viewBox="0 0 1257 76" version="1.1" xmlns="http://www.w3.org/2000/svg" xmlns:xlink="http://www.w3.org/1999/xlink">
    <!-- Generator: Sketch 51.3 (57544) - http://www.bohemiancoding.com/sketch -->
    <title>Group 14</title>
    <desc>Created with Sketch.</desc>
    <defs>
        <path d="M680,74.3007984 L680,2.59580838 L701.064671,2.59580838 L701.064671,58.1299401 L720.959082,58.1299401 L718.937725,74.3007984 L680,74.3007984 Z M766.811976,29.7245509 L766.811976,45.5762475 L747.130339,45.5762475 L747.130339,58.555489 L769.684431,58.555489 L767.343912,74.3007984 L726.597605,74.3007984 L726.597605,2.59580838 L767.663074,2.59580838 L767.663074,18.447505 L747.130339,18.447505 L747.130339,29.7245509 L766.811976,29.7245509 Z M773.088822,52.8105788 L793.727944,52.8105788 C793.727944,59.1938124 794.579042,61.3215569 797.025948,61.3215569 C799.472854,61.3215569 800.111178,59.4065868 800.111178,56.4277445 C800.111178,52.4914172 798.302595,50.2572854 790.749102,45.789022 C778.408184,38.4483034 773.833533,32.597006 773.833533,22.3838323 C773.833533,9.40459082 781.067864,1 797.025948,1 C813.83513,1 820.005589,10.1493014 820.005589,23.8732535 L800.111178,23.8732535 C800.111178,17.49002 799.472854,15.4686627 797.132335,15.4686627 C795.323752,15.4686627 794.579042,16.7453094 794.579042,19.5113772 C794.579042,22.3838323 795.217365,24.2988024 802.132535,28.341517 C816.069261,36.4269461 820.963074,41.9590818 820.963074,53.5552894 C820.963074,66.5345309 814.367066,75.7902196 797.34511,75.7902196 C779.046507,75.7902196 773.301597,67.492016 773.088822,52.8105788 Z M825.32495,52.8105788 L845.964072,52.8105788 C845.964072,59.1938124 846.81517,61.3215569 849.262076,61.3215569 C851.708982,61.3215569 852.347305,59.4065868 852.347305,56.4277445 C852.347305,52.4914172 850.538723,50.2572854 842.98523,45.789022 C830.644311,38.4483034 826.069661,32.597006 826.069661,22.3838323 C826.069661,9.40459082 833.303992,1 849.262076,1 C866.071257,1 872.241717,10.1493014 872.241717,23.8732535 L852.347305,23.8732535 C852.347305,17.49002 851.708982,15.4686627 849.368463,15.4686627 C847.55988,15.4686627 846.81517,16.7453094 846.81517,19.5113772 C846.81517,22.3838323 847.453493,24.2988024 854.368663,28.341517 C868.305389,36.4269461 873.199202,41.9590818 873.199202,53.5552894 C873.199202,66.5345309 866.603194,75.7902196 849.581238,75.7902196 C831.282635,75.7902196 825.537725,67.492016 825.32495,52.8105788 Z M895.008583,74.3007984 L895.008583,2.59580838 L917.669062,2.59580838 C936.074052,2.59580838 944.691417,10.894012 944.691417,37.0652695 C944.691417,64.7259481 935.967665,74.3007984 917.775449,74.3007984 L895.008583,74.3007984 Z M916.073253,17.2772455 L916.073253,59.6193613 L917.137126,59.6193613 C921.711776,59.6193613 922.030938,56.9596806 922.030938,36.3205589 C922.030938,19.0858283 921.17984,17.2772455 917.243513,17.2772455 L916.073253,17.2772455 Z M976.607585,1 C995.544511,1 1002.35329,13.3409182 1002.35329,38.1291417 C1002.35329,63.7684631 995.650898,75.7902196 975.862874,75.7902196 C957.351497,75.7902196 950.861876,63.0237525 950.861876,37.4908184 C950.861876,13.5536926 957.351497,1 976.607585,1 Z M976.607585,16.3197605 C974.160679,16.3197605 973.415968,18.1283433 973.415968,37.7035928 C973.415968,58.1299401 973.841517,60.4704591 976.607585,60.4704591 C979.48004,60.4704591 979.799202,58.0235529 979.799202,37.7035928 C979.799202,18.2347305 979.48004,16.3197605 976.607585,16.3197605 Z M1009.69401,74.3007984 L1009.69401,2.59580838 L1030.75868,2.59580838 L1030.75868,58.1299401 L1050.65309,58.1299401 L1048.63174,74.3007984 L1009.69401,74.3007984 Z M1056.29162,74.3007984 L1056.29162,2.59580838 L1077.35629,2.59580838 L1077.35629,58.1299401 L1097.2507,58.1299401 L1095.22934,74.3007984 L1056.29162,74.3007984 Z M1128.8477,61.9598802 L1121.4006,61.9598802 L1120.33673,74.3007984 L1099.27206,74.3007984 L1109.16607,2.59580838 L1141.61417,2.59580838 L1151.82735,74.3007984 L1130.12435,74.3007984 L1128.8477,61.9598802 Z M1122.89002,44.8315369 L1127.14551,44.8315369 C1126.82635,38.7674651 1126.08164,23.5540918 1125.65609,17.9155689 L1124.6986,17.9155689 C1124.27305,25.1499002 1123.20918,38.5546906 1122.89002,44.8315369 Z M1178.63693,46.2145709 L1177.36028,46.2145709 L1177.36028,74.3007984 L1156.72116,74.3007984 L1156.72116,2.59580838 L1183.74351,2.59580838 C1198.63772,2.59580838 1204.59541,9.61736527 1204.59541,22.4902196 C1204.59541,31.7459082 1201.08463,36.7461078 1195.44611,38.8738523 C1201.61657,41.107984 1204.06347,46.0017964 1204.06347,55.5766467 L1204.06347,57.3852295 C1204.06347,64.4067864 1204.16986,72.3858283 1204.48902,74.3007984 L1183.8499,74.3007984 C1183.42435,72.4922156 1182.9988,64.5131737 1182.9988,56.1085828 L1182.9988,53.9808383 C1182.9988,47.2784431 1182.25409,46.2145709 1178.63693,46.2145709 Z M1177.46667,16.8516966 L1177.46667,31.8522954 L1178.53054,31.8522954 C1182.1477,31.8522954 1183.42435,31.0011976 1183.42435,23.9796407 C1183.42435,18.1283433 1182.78603,16.8516966 1178.95609,16.8516966 L1177.46667,16.8516966 Z M1209.06367,52.8105788 L1229.70279,52.8105788 C1229.70279,59.1938124 1230.55389,61.3215569 1233.0008,61.3215569 C1235.4477,61.3215569 1236.08603,59.4065868 1236.08603,56.4277445 C1236.08603,52.4914172 1234.27745,50.2572854 1226.72395,45.789022 C1214.38303,38.4483034 1209.80838,32.597006 1209.80838,22.3838323 C1209.80838,9.40459082 1217.04271,1 1233.0008,1 C1249.80998,1 1255.98044,10.1493014 1255.98044,23.8732535 L1236.08603,23.8732535 C1236.08603,17.49002 1235.4477,15.4686627 1233.10719,15.4686627 C1231.2986,15.4686627 1230.55389,16.7453094 1230.55389,19.5113772 C1230.55389,22.3838323 1231.19222,24.2988024 1238.10739,28.341517 C1252.04411,36.4269461 1256.93792,41.9590818 1256.93792,53.5552894 C1256.93792,66.5345309 1250.34192,75.7902196 1233.31996,75.7902196 C1215.02136,75.7902196 1209.27645,67.492016 1209.06367,52.8105788 Z" id="path-1"></path>
    </defs>
    <g id="Symbols" stroke="none" stroke-width="1" fill="none" fill-rule="evenodd">
        <g id="Group-14">
            <path d="M42.703992,74 L42.703992,56.2333333 C42.703992,46.658483 42.8103792,30.4876248 43.0231537,21.1255489 L42.2784431,21.1255489 C40.789022,38.0411178 38.5548902,64.7443114 37.5974052,74 L22.8095808,74 C21.7457086,60.2760479 19.7243513,36.4453094 18.2349301,21.0191617 L17.4902196,21.0191617 C17.702994,29.5301397 18.0221557,43.360479 18.0221557,55.8077844 L18.0221557,74 L0.255489022,74 L0.255489022,2.29500998 L27.7033932,2.29500998 C28.3417166,9.42295409 29.937525,26.7640719 30.4694611,35.5942116 L31.2141717,35.5942116 C32.3844311,23.998004 32.80998,16.1253493 34.4057884,2.29500998 L62.1728543,2.29500998 L62.1728543,74 L42.703992,74 Z M95.2592814,0.699201597 C114.196208,0.699201597 121.00499,13.0401198 121.00499,37.8283433 C121.00499,63.4676647 114.302595,75.4894212 94.5145709,75.4894212 C76.0031936,75.4894212 69.5135729,62.7229541 69.5135729,37.19002 C69.5135729,13.2528942 76.0031936,0.699201597 95.2592814,0.699201597 Z M95.2592814,16.0189621 C92.8123752,16.0189621 92.0676647,17.8275449 92.0676647,37.4027944 C92.0676647,57.8291417 92.4932136,60.1696607 95.2592814,60.1696607 C98.1317365,60.1696607 98.4508982,57.7227545 98.4508982,37.4027944 C98.4508982,17.9339321 98.1317365,16.0189621 95.2592814,16.0189621 Z M150.261477,45.9137725 L148.98483,45.9137725 L148.98483,74 L128.345709,74 L128.345709,2.29500998 L155.368064,2.29500998 C170.262275,2.29500998 176.21996,9.31656687 176.21996,22.1894212 C176.21996,31.4451098 172.709182,36.4453094 167.070659,38.5730539 C173.241118,40.8071856 175.688024,45.700998 175.688024,55.2758483 L175.688024,57.0844311 C175.688024,64.105988 175.794411,72.0850299 176.113573,74 L155.474451,74 C155.048902,72.1914172 154.623353,64.2123752 154.623353,55.8077844 L154.623353,53.6800399 C154.623353,46.9776447 153.878643,45.9137725 150.261477,45.9137725 Z M149.091218,16.5508982 L149.091218,31.551497 L150.15509,31.551497 C153.772255,31.551497 155.048902,30.7003992 155.048902,23.6788423 C155.048902,17.8275449 154.410579,16.5508982 150.580639,16.5508982 L149.091218,16.5508982 Z M223.030339,29.4237525 L223.030339,45.2754491 L203.348703,45.2754491 L203.348703,58.2546906 L225.902794,58.2546906 L223.562275,74 L182.815968,74 L182.815968,2.29500998 L223.881437,2.29500998 L223.881437,18.1467066 L203.348703,18.1467066 L203.348703,29.4237525 L223.030339,29.4237525 Z M244.626946,52.5097804 L265.266068,52.5097804 C265.266068,58.893014 266.117166,61.0207585 268.564072,61.0207585 C271.010978,61.0207585 271.649301,59.1057884 271.649301,56.1269461 C271.649301,52.1906188 269.840719,49.956487 262.287226,45.4882236 C249.946307,38.147505 245.371657,32.2962076 245.371657,22.0830339 C245.371657,9.10379242 252.605988,0.699201597 268.564072,0.699201597 C285.373253,0.699201597 291.543713,9.84850299 291.543713,23.5724551 L271.649301,23.5724551 C271.649301,17.1892216 271.010978,15.1678643 268.670459,15.1678643 C266.861876,15.1678643 266.117166,16.444511 266.117166,19.2105788 C266.117166,22.0830339 266.755489,23.998004 273.670659,28.0407186 C287.607385,36.1261477 292.501198,41.6582834 292.501198,53.254491 C292.501198,66.2337325 285.90519,75.4894212 268.883234,75.4894212 C250.584631,75.4894212 244.839721,67.1912176 244.626946,52.5097804 Z M308.246507,74 L308.246507,18.1467066 L296.011976,18.1467066 L296.011976,2.29500998 L341.226547,2.29500998 L341.226547,18.1467066 L329.20479,18.1467066 L329.20479,74 L308.246507,74 Z M346.226747,2.29500998 L367.291417,2.29500998 L367.291417,54.5311377 C367.291417,57.8291417 367.716966,60.2760479 370.376647,60.2760479 C373.036327,60.2760479 373.249102,57.9355289 373.249102,54.5311377 L373.249102,2.29500998 L394.526547,2.29500998 L394.526547,52.6161677 C394.526547,70.4892216 383.568663,75.4894212 369.738323,75.4894212 C354.950499,75.4894212 346.226747,69.5317365 346.226747,52.4033932 L346.226747,2.29500998 Z M402.505589,74 L402.505589,2.29500998 L425.166068,2.29500998 C443.571058,2.29500998 452.188423,10.5932136 452.188423,36.7644711 C452.188423,64.4251497 443.464671,74 425.272455,74 L402.505589,74 Z M423.570259,16.9764471 L423.570259,59.3185629 L424.634132,59.3185629 C429.208782,59.3185629 429.527944,56.6588822 429.527944,36.0197605 C429.527944,18.7850299 428.676846,16.9764471 424.740519,16.9764471 L423.570259,16.9764471 Z M499.743513,29.4237525 L499.743513,45.2754491 L480.061876,45.2754491 L480.061876,58.2546906 L502.615968,58.2546906 L500.275449,74 L459.529142,74 L459.529142,2.29500998 L500.594611,2.29500998 L500.594611,18.1467066 L480.061876,18.1467066 L480.061876,29.4237525 L499.743513,29.4237525 Z M526.659481,74 L508.148104,74 L508.148104,2.29500998 L530.489421,2.29500998 C536.234331,29.5301397 538.149301,38.3602794 538.681238,41.0199601 L539.319561,41.0199601 C538.468463,30.8067864 537.83014,16.5508982 537.83014,6.44411178 L537.83014,2.29500998 L556.341517,2.29500998 L556.341517,74 L533.574651,74 C527.404192,41.7646707 526.446707,35.7005988 525.91477,33.1473054 L525.17006,33.1473054 C525.808383,41.445509 526.659481,60.2760479 526.659481,69.9572854 L526.659481,74 Z M574.108184,74 L574.108184,18.1467066 L561.873653,18.1467066 L561.873653,2.29500998 L607.088224,2.29500998 L607.088224,18.1467066 L595.066467,18.1467066 L595.066467,74 L574.108184,74 Z M610.492615,52.5097804 L631.131737,52.5097804 C631.131737,58.893014 631.982834,61.0207585 634.429741,61.0207585 C636.876647,61.0207585 637.51497,59.1057884 637.51497,56.1269461 C637.51497,52.1906188 635.706387,49.956487 628.152894,45.4882236 C615.811976,38.147505 611.237325,32.2962076 611.237325,22.0830339 C611.237325,9.10379242 618.471657,0.699201597 634.429741,0.699201597 C651.238922,0.699201597 657.409381,9.84850299 657.409381,23.5724551 L637.51497,23.5724551 C637.51497,17.1892216 636.876647,15.1678643 634.536128,15.1678643 C632.727545,15.1678643 631.982834,16.444511 631.982834,19.2105788 C631.982834,22.0830339 632.621158,23.998004 639.536327,28.0407186 C653.473054,36.1261477 658.366866,41.6582834 658.366866,53.254491 C658.366866,66.2337325 651.770858,75.4894212 634.748902,75.4894212 C616.450299,75.4894212 610.705389,67.1912176 610.492615,52.5097804 Z" id="more-students." fill="#F37321"></path>
            <g id="less-dollars.">
                <use fill-opacity="0" fill="#F37321" xlink:href="#path-1"></use>
                <use fill="#000000" xlink:href="#path-1"></use>
            </g>
        </g>
    </g>
</svg>