<?xml version="1.0" encoding="UTF-8"?>
<svg width="84px" height="78px" viewBox="0 0 84 78" version="1.1" xmlns="http://www.w3.org/2000/svg" xmlns:xlink="http://www.w3.org/1999/xlink">
    <!-- Generator: Sketch 51.3 (57544) - http://www.bohemiancoding.com/sketch -->
    <title>“ copy</title>
    <desc>Created with Sketch.</desc>
    <defs></defs>
    <g id="Symbols" stroke="none" stroke-width="1" fill="none" fill-rule="evenodd">
        <g id="Sections/Testimonials" transform="translate(0.000000, -286.000000)" fill="#F9B990">
            <path d="M0,319.788018 L27.6363636,286 L34.5454545,294.626728 L12.7272727,323.741935 L29.8181818,323.741935 L29.8181818,364 L0,364 L0,319.788018 Z M49.0909091,319.788018 L76.7272727,286 L84,294.626728 L61.8181818,323.741935 L78.9090909,323.741935 L78.9090909,364 L49.0909091,364 L49.0909091,319.788018 Z" id="“-copy" transform="translate(42.000000, 325.000000) scale(-1, 1) rotate(-180.000000) translate(-42.000000, -325.000000) "></path>
        </g>
    </g>
</svg>